Engine\Binaries\Win64\UE4Game.pdb	2016-10-08T01:13:37.887Z
Engine\Binaries\ThirdParty\PhysX\PhysX-3.3\Win64\VS2015\PhysX3PROFILE_x64.pdb	2016-10-08T00:25:53.307Z
Engine\Binaries\ThirdParty\PhysX\PhysX-3.3\Win64\VS2015\PhysX3CommonPROFILE_x64.pdb	2016-10-08T00:25:51.780Z
Engine\Binaries\ThirdParty\PhysX\PhysX-3.3\Win64\VS2015\PhysX3CookingPROFILE_x64.pdb	2016-10-08T00:25:51.802Z
Engine\Binaries\ThirdParty\PhysX\APEX-1.3\Win64\VS2015\APEX_ClothingPROFILE_x64.dll.pdb	2016-10-08T00:25:49.573Z
Engine\Binaries\ThirdParty\PhysX\APEX-1.3\Win64\VS2015\APEX_DestructiblePROFILE_x64.dll.pdb	2016-10-08T00:25:49.638Z
Engine\Binaries\ThirdParty\PhysX\APEX-1.3\Win64\VS2015\APEX_LegacyPROFILE_x64.dll.pdb	2016-10-08T00:25:49.702Z
Engine\Binaries\ThirdParty\PhysX\APEX-1.3\Win64\VS2015\ApexFrameworkPROFILE_x64.dll.pdb	2016-10-08T00:25:50.948Z
